{
    "Sonido largo": {
        "First": 48,
        "Last": 72,
        "Distancia": [10],
        "Instrucciones": "Selecciona el sonido mas ",
        "Tipo": ["largo."],
        "Lesson": "DURACION",
        "Opc": [4, 5, 2],
        "field": "sonido_largo" 
    },

    "Sonido corto": {
        "First": 48,
        "Last": 72,
        "Distancia": [2],
        "Instrucciones": "Selecciona el sonido mas ",
        "Tipo": ["corto."],
        "Lesson": "DURACION",
        "Opc": [8, 10, 6],
        "field": "sonido_corto"
    },

    "Sonido agudo": {
        "First": 48,
        "Last": 84,
        "Distancia": [72, 84],
        "Instrucciones": "Selecciona el sonido mas ",
        "Tipo": ["agudo."],
        "Lesson": "ALTURA",
        "Opc": [
            [48, 60]
        ],
        "field": "sonido_agudo" 
    },

    "Sonido grave": {
        "First": 36,
        "Last": 72,
        "Distancia": [36, 48],
        "Instrucciones": "Selecciona el sonido mas ",
        "Tipo": ["grave."],
        "Lesson": "ALTURA",
        "Opc": [
            [60, 72]
        ],
        "field": "sonido_grave" 
    },
    
    "Sonido consonante": {
        "First": 48,
        "Last": 72,
        "Distancia": [3, 4, 8, 9],
        "Instrucciones": "Selecciona el sonido ",
        "Tipo": ["consonante."],
        "Lesson": "INTERVALO",
        "Opc": [1, 2, 5, 6, 7, 10, 11, 12],
        "field": "sonido_consonante"
    },

    "Sonido disonante": {
        "First": 48,
        "Last": 72,
        "Distancia": [1, 2, 6, 10, 11],
        "Instrucciones": "Selecciona el sonido ",
        "Tipo": ["disonante."],
        "Lesson": "INTERVALO",
        "Opc": [3, 4, 5, 7, 8, 9, 12],
        "field": "sonido_disonante"
    },
    
    "Sonido hueco": {
        "First": 48,
        "Last": 72,
        "Distancia": [5, 7, 12],
        "Instrucciones": "Selecciona el sonido ",
        "Tipo": ["hueco."],
        "Lesson": "INTERVALO",
        "Opc": [1, 2, 3, 4, 6, 8, 9, 10, 11],
        "field": "sonido_hueco"
    },

    "Escala mayor": {
        "First": 48,
        "Last": 72,
        "Distancia": [2, 4, 5, 7, 9, 11, 12],
        "Instrucciones": "Selecciona la ",
        "Tipo": ["escala mayor."],
        "Lesson": "ESCALA",
        "Opc": [
            [2, 3, 5, 7, 8, 10, 12], 
            [2, 3, 5, 7, 8, 11, 12],  
            [2, 4, 6, 8, 10, 12],     
            [2, 4, 7, 9, 12],
            [1 , 2, 3, 4, 5, 6, 7, 8, 9, 10, 11, 12]      
        ],
        "field": "escala_mayor"
    },

    "Escala menor": {
        "First": 48,
        "Last": 72,
        "Distancia": [2, 3, 5, 7, 8, 10, 12],
        "Instrucciones": "Selecciona la ",
        "Tipo": ["escala menor."],
        "Lesson": "ESCALA",
        "Opc": [
            [2, 4, 5, 7, 9, 11, 12],
            [2, 3, 5, 7, 8, 11, 12], 
            [2, 4, 6, 8, 10, 12],     
            [2, 4, 7, 9, 12],
            [1 , 2, 3, 4, 5, 6, 7, 8, 9, 10, 11, 12]      
        ],
        "field": "escala_menor"
    },

    "Escala cromática": {
        "First": 48,
        "Last": 72,
        "Distancia": [1 , 2, 3, 4, 5, 6, 7, 8, 9, 10, 11, 12],
        "Instrucciones": "Selecciona la ",
        "Tipo": ["escala cromática."],
        "Lesson": "ESCALA",
        "Opc": [
            [2, 4, 5, 7, 9, 11, 12], 
            [2, 3, 5, 7, 8, 10, 12],
            [2, 3, 5, 7, 8, 11, 12],
            [2, 4, 6, 8, 10, 12],     
            [2, 4, 7, 9, 12]     
        ],
        "field": "escala_cromatica"
    },
    
    "Intervalo 2da": {
        "First": 48,
        "Last": 72,
        "Distancia": [1, 2],
        "Instrucciones": "Selecciona el sonido que sea un intervalo de 2da ",
        "Tipo": ["menor.", "mayor."],
        "Lesson": "INTERVALO",
        "Opc": [3, 4, 5, 6, 7, 8, 9, 10, 11, 12],
        "field": "intervalos_2"
    },  

    "Intervalo 3ra": {
        "First": 48,
        "Last": 72,
        "Distancia": [3, 4],
        "Instrucciones": "Selecciona el sonido que sea un intervalo de 3ra ",
        "Tipo": ["menor.", "mayor."],
        "Lesson": "INTERVALO",
        "Opc": [1, 2, 5, 6, 7, 8, 9, 10, 11, 12],
        "field": "intervalos_3"
    },

    "Intervalo 4ta": {
        "First": 48,
        "Last": 72,
        "Distancia": [5],
        "Instrucciones": "Selecciona el sonido que sea un intervalo de 4ta ",
        "Tipo": ["justa."],
        "Lesson": "INTERVALO",
        "Opc": [1, 2, 3, 4, 6, 7, 8, 9, 10, 11, 12],
        "field": "intervalos_4"
    }, 

    "Intervalo 5ta": {
        "First": 48,
        "Last": 72,
        "Distancia": [7],
        "Instrucciones": "Selecciona el sonido que sea un intervalo de 5ta ",
        "Tipo": ["justa."],
        "Lesson": "INTERVALO",
        "Opc": [1, 2, 3, 4, 6, 5, 8, 9, 10, 11, 12],
        "field": "intervalos_5"
    }, 

    "Intervalo 6ta": {
        "First": 48,
        "Last": 72,
        "Distancia": [8, 9],
        "Instrucciones": "Selecciona el sonido que sea un intervalo de 6ta ",
        "Tipo": ["menor.", "mayor."],
        "Lesson": "INTERVALO",
        "Opc": [1, 2, 3, 4, 5, 6, 7, 10, 11, 12],
        "field": "intervalos_6"
    }, 

    "Intervalo 7ma": {
        "First": 48,
        "Last": 72,
        "Distancia": [10, 11],
        "Instrucciones": "Selecciona el sonido que sea un intervalo de 7ma ",
        "Tipo": ["menor.", "mayor."],
        "Lesson": "INTERVALO",
        "Opc": [1, 2, 3, 4, 5, 6, 7, 8, 9, 12],
        "field": "intervalos_7"
    }, 

    "Intervalo 8va": {
        "First": 48,
        "Last": 72,
        "Distancia": [12],
        "Instrucciones": "Selecciona el sonido que sea un intervalo de 8va ",
        "Tipo": ["justa."],
        "Lesson": "INTERVALO",
        "Opc": [1, 2, 3, 4, 6, 7, 8, 9, 10, 11],
        "field": "intervalos_8"
    },

    "Acorde Mayor": {
        "First": 48,
        "Last": 72,
        "Distancia": [0, 4, 7],
        "Instrucciones": "Selecciona el ",
        "Tipo": ["acorde mayor."],
        "Lesson": "ACORDE",
        "Opc": [
            [0, 3, 7],  
            [0, 4, 8],     
            [0, 3, 6],
            [0, 2, 5],
            [0, 3, 7, 12],  
            [0, 4, 8, 12],     
            [0, 3, 6, 12],
            [0, 2, 5, 12],
            [0, 3, 7, 10],
            [0, 3, 7, 11] 
        ],
        "field": "acorde_mayor"
    }, 

    "Acorde Menor": {
        "First": 48,
        "Last": 72,
        "Distancia": [0, 3, 7],
        "Instrucciones": "Selecciona el ",
        "Tipo": ["acorde menor."],
        "Lesson": "ACORDE",
        "Opc": [
            [0, 4, 7],  
            [0, 4, 8],     
            [0, 3, 6],
            [0, 2, 5],
            [0, 3, 7, 12],  
            [0, 4, 8, 12],     
            [0, 3, 6, 12],
            [0, 2, 5, 12],
            [0, 3, 7, 10],
            [0, 3, 7, 11] 
        ],
        "field": "acorde_menor"
    }, 

    "Acorde disminuido": {
        "First": 48,
        "Last": 72,
        "Distancia": [0, 3, 6],
        "Instrucciones": "Selecciona el ",
        "Tipo": ["acorde disminuido."],
        "Lesson": "ACORDE",
        "Opc": [
            [0, 3, 7],  
            [0, 4, 8],     
            [0, 4, 7],
            [0, 2, 5],
            [0, 3, 7, 12],  
            [0, 4, 8, 12],     
            [0, 3, 6, 12],
            [0, 2, 5, 12],
            [0, 3, 7, 10],
            [0, 3, 7, 11] 
        ],
        "field": "acorde_disminuido"
    }, 

    "Acorde aumentado": {
        "First": 48,
        "Last": 72,
        "Distancia": [0, 4, 8],
        "Instrucciones": "Selecciona el ",
        "Tipo": ["acorde aumentado."],
        "Lesson": "ACORDE",
        "Opc": [
            [0, 3, 7],  
            [0, 4, 7],     
            [0, 3, 6],
            [0, 2, 5],
            [0, 3, 7, 12],  
            [0, 4, 8, 12],     
            [0, 3, 6, 12],
            [0, 2, 5, 12],
            [0, 3, 7, 10],
            [0, 3, 7, 11]
        ],
        "field": "acorde_aumentado"
    }
}